{
    "KPackageStructure": "Plasma/Applet",
    "KPlugin": {
        "Name": "Trigger Button Plasmoid",
        "Id": "org.kde.mhas.trigger-button",
        "Description": "Button to trigger a script",
        "Category": "System Information",
		"Icon": "battery",
		"Authors": [
			{
				"Email": "maxime.haselbauer@googlemail.com",
				"Name": "Maxime Haselbauer"
			}
		],
        "Version": "0.0.1",
		"License": "MIT",
		"Website": "https://invent.kde.org/mhaselbauer/trigger-button-plasmoid",
		"BugReportUrl": "https://invent.kde.org/mhaselbauer/trigger-button-plasmoid/-/issues"
    },
    "X-Plasma-API-Minimum-Version": "6.0",
    "X-Plasma-API": "declarativeappletscript",
    "X-Plasma-MainScript": "ui/main.qml"
}
